<?xml version="1.0" standalone="no"?> <!DOCTYPE svg PUBLIC "-//W3C//DTD SVG 1.0//EN" "http://www.w3.org/TR/2001/REC-SVG-20010904/DTD/svg10.dtd" > <svg xmlns="http://www.w3.org/2000/svg" width="100%" height="100%">
<defs >
<font id="PTSans-BoldItalic" horiz-adv-x="516" ><font-face
    font-family="PT Sans"
    units-per-em="1000"
    panose-1="2 11 7 3 2 2 3 9 2 4"
    ascent="1018"
    descent="-276"
    alphabetic="0" />
<missing-glyph horiz-adv-x="750" d="M50 700H700V0H50V700ZM570 620L375 403L180 620L130 570L327 350L130 130L180 80L375 297L570 80L620 130L422 350L620 570L570 620ZM129 27H137V39H141Q147 39 152 41T157 51Q157 59 152 61T140 63H129V27ZM141 57Q149 57
149 52Q149 47 147 47T140 46H137V57H141ZM189 63H158V57H170V27H177V57H189V63ZM222 37Q222 33 215 33Q208 33 206 35L203 28Q205 28 208 27T216 26Q230 26 230 38Q230 47 221 48T212 54Q212 57 218 57Q223 57 227 55L229 62Q223 64 218 64Q204 64 204 53Q204
48 207 46T213 43T219 40T222 37ZM237 47Q241 49 246 49Q251 49 251 45V43Q250 43 249 43T246 44Q234 44 234 34Q234 26 242 26Q248 26 251 31L253 27H259Q258 29 258 34V45Q258 55 248 55Q244 55 241 54T235 52L237 47ZM245 32Q241 32 241 36Q241 40 246 40Q248
40 249 40T251 39V36Q249 32 245 32ZM292 27V43Q292 55 283 55Q276 55 273 50L271 54H266V27H273V44Q275 48 279 48Q284 48 284 42V27H292ZM297 28Q301 26 307 26Q318 26 318 35Q318 40 316 41T310 44Q305 46 305 47Q305 49 308 49Q312 49 316 47L318 53Q314 55
308 55Q298 55 298 46Q298 41 301 40T306 37Q311 37 311 34Q311 32 308 32Q303 32 299 34L297 28ZM338 42Q338 21 358 21Q378 21 378 42Q378 62 358 62Q350 62 344 57T338 42ZM344 42Q344 57 358 57Q372 57 372 42Q372 27 358 27Q344 27 344 42ZM364 38Q362 37
360 37Q356 37 356 42Q356 46 360 46H363L365 50Q361 52 358 52Q349 52 349 42Q349 31 358 31Q363 31 365 33L364 38ZM399 27H407V39H411Q417 39 422 41T427 51Q427 59 422 61T410 63H399V27ZM411 57Q419 57 419 52Q419 47 417 47T410 46H407V57H411ZM432 47Q436
49 441 49Q446 49 446 45V43Q445 43 444 43T441 44Q428 44 428 34Q428 26 437 26Q443 26 446 31L448 27H454Q453 29 453 34V45Q453 55 443 55Q439 55 436 54T430 52L432 47ZM440 32Q436 32 436 36Q436 40 441 40Q443 40 444 40T446 39V36Q444 32 440 32ZM478 54Q477
55 474 55Q470 55 468 50H467L466 54H460V27H468V44Q468 48 474 48H475Q476 48 476 48T477 47L478 54ZM483 47Q489 49 492 49Q497 49 497 45V43Q496 43 495 43T492 44Q479 44 479 34Q479 26 488 26Q495 26 497 31H498L499 27H505Q504 29 504 34V45Q504 55 494 55Q490
55 487 54T482 52L483 47ZM491 32Q487 32 487 36Q487 40 492 40Q494 40 495 40T497 39V36Q495 32 491 32ZM533 63H502V57H513V27H521V57H533V63ZM541 54H533L545 27Q544 22 540 22L539 23L537 17Q539 16 542 16Q547 16 552 29L562 54H554L549 39V34H548L547 39L541
54ZM565 16H573V28Q574 26 578 26Q592 26 592 41Q592 55 581 55Q576 55 572 51H571L570 54H565V16ZM579 49Q584 49 584 41Q584 32 577 32Q575 32 573 34V44Q573 49 579 49ZM618 34Q616 32 611 32Q604 32 603 38H622V44Q622 50 619 52T610 55Q596 55 596 40Q596
26 610 26Q613 26 616 27T621 29L618 34ZM610 49Q616 49 615 43H604Q604 49 610 49Z" />
<glyph unicode=" " glyph-name="space" horiz-adv-x="253" />
<glyph unicode="!" glyph-name="exclam" horiz-adv-x="283" d="M217 700H345L275 371L216 208H138L147 371L217 700ZM74 66Q74 101 96 121T154 142Q191 142 213 122T235 66Q235 31 213 10T154 -11Q118 -11 96 10T74 66Z" />
<glyph unicode="&quot;" glyph-name="quotedbl" horiz-adv-x="354" d="M372 700H480L401 484H326L372 700ZM256 700H364L285 484H210L256 700Z" />
<glyph unicode="#" glyph-name="numbersign" horiz-adv-x="545" d="M318 205H229L193 51H86L122 205H48L70 302H145L170 408H98L120 505H193L228 649H335L300 505H389L424 649H531L496 505H568L543 408H473L448 302H517L493 205H425L389 51H282L318 205ZM252 302H341L366
408H277L252 302Z" />
<glyph unicode="$" glyph-name="dollar" horiz-adv-x="545" d="M192 -10Q140 -3 108 13T59 43L106 140Q120 130 148 117T215 97L262 318Q239 333 217 350T178 390T150 441T139 508Q139 556 155 592T200 653T266 692T345 711L365 800H464L445 710Q483 705 512 696T562
675L512 573Q498 581 474 589T421 602L378 399Q401 383 424 365T465 324T494 271T505 203Q505 155 489 118T445 53T377 10T290 -11L272 -100H173L192 -10ZM272 94Q325 98 350 125T375 188Q375 220 357 242T312 284L272 94ZM364 606Q316 604 293 581T269 524Q269
495 285 475T328 434L364 606Z" />
<glyph unicode="%" glyph-name="percent" horiz-adv-x="804" d="M311 499Q311 553 329 593T378 659T444 699T517 712Q583 712 617 682T652 592Q652 535 635 494T589 425T523 385T445 372Q383 372 347 406T311 499ZM421 505Q420 483 431 470T463 456Q496 456 519
490T542 579Q542 628 499 628Q482 628 468 618T443 592T426 553T421 505ZM420 128Q420 182 438 222T487 288T553 328T626 341Q692 341 726 311T761 221Q761 164 744 123T698 54T632 14T554 1Q492 1 456 35T420 128ZM530 134Q529 112 540 99T572 85Q605 85 628 119T651
208Q651 257 608 257Q591 257 577 247T552 221T535 182T530 134ZM656 714L729 648L153 -14L80 55L656 714Z" />
<glyph unicode="&amp;" glyph-name="ampersand" horiz-adv-x="783" d="M73 162Q73 208 91 249T140 324T209 385T289 433Q272 466 268 493T263 547Q263 580 274 610T309 663T370 700T458 714Q498 714 523 704T564 678T584 641T590 600Q590 549 550 503T434 415Q456
361 479 316T535 227Q561 252 587 289T635 366L714 316Q704 298 689 277T658 233T625 192T595 158Q619 129 647 104T704 66L617 -30Q602 -24 586 -13T555 12T525 41T501 70Q458 37 402 12T270 -14Q224 -14 188 -1T126 36T87 92T73 162ZM443 149Q406 202 377 254T329
354Q270 314 237 274T203 186Q203 144 230 120T310 96Q348 96 384 112T443 149ZM384 553Q384 531 387 516T402 476Q444 501 467 525T490 576Q490 595 481 606T447 617Q416 617 400 598T384 553Z" />
<glyph unicode="&apos;" glyph-name="quotesingle" horiz-adv-x="218" d="M137 700H245L166 484H91L137 700Z" />
<glyph unicode="(" glyph-name="parenleft" horiz-adv-x="310" d="M157 -218Q128 -180 110 -141T81 -62T66 14T62 87Q62 183 85 273T146 444T236 593T343 712L407 658Q360 606 320 542T249 404T202 253T184 94Q184 31 193 -30T234 -164L157 -218Z" />
<glyph unicode=")" glyph-name="parenright" horiz-adv-x="310" d="M183 711Q228 651 248 576T269 409Q269 313 247 222T186 50T97 -100T-10 -220L-77 -165Q-32 -115 9 -50T80 90T129 242T147 395Q147 478 135 541T96 655L183 711Z" />
<glyph unicode="*" glyph-name="asterisk" horiz-adv-x="356" d="M182 731L210 685L225 626L240 681L268 730L331 695L301 643L254 600L318 616H375V543H321L260 559L310 512L335 470L271 433L244 479L224 543L211 485L182 436L117 473L147 522L192 559L137 543H78V617H137L196
600L146 644L118 694L182 731Z" />
<glyph unicode="+" glyph-name="plus" horiz-adv-x="505" d="M58 394H220V563H337V394H500V282H337V111H220V282H58V394Z" />
<glyph unicode="," glyph-name="comma" horiz-adv-x="226" d="M60 -5Q43 -4 28 12T13 54Q13 94 38 116T99 138Q134 138 151 116T168 64V62Q167 13 148 -23T103 -85T48 -126T0 -148L-26 -94Q3 -83 27 -58T60 -5Z" />
<glyph unicode="-" glyph-name="hyphen" horiz-adv-x="343" d="M81 340H320L295 236H56L81 340Z" />
<glyph unicode="." glyph-name="period" horiz-adv-x="251" d="M33 66Q33 101 55 121T113 142Q150 142 172 122T194 66Q194 31 172 10T113 -11Q77 -11 55 10T33 66Z" />
<glyph unicode="/" glyph-name="slash" horiz-adv-x="388" d="M432 712L518 666L8 -142L-77 -94L432 712Z" />
<glyph unicode="0" glyph-name="zero" horiz-adv-x="545" d="M55 229Q55 333 78 421T144 575T243 677T369 714Q408 714 442 702T503 662T544 587T559 471Q559 378 538 291T476 136T377 27T245 -14Q196 -14 160 5T101 56T67 133T55 229ZM179 230Q179 189 186 163T204
122T232 102T266 96Q301 96 331 129T385 215T421 334T435 469Q435 500 432 525T419 567T393 594T352 604Q319 604 288 573T233 491T194 371T179 230Z" />
<glyph unicode="1" glyph-name="one" horiz-adv-x="545" d="M81 110H213L298 505L326 573L268 514L171 452L132 529L389 712H459L331 110H460L437 0H58L81 110Z" />
<glyph unicode="2" glyph-name="two" horiz-adv-x="545" d="M540 560Q540 504 514 447T448 334T360 230T269 142L210 101V96L280 110H459L436 0H36L50 67Q78 93 116 128T195 204T275 288T346 374T396 455T416 526Q416 559 399 580T334 601Q303 601 271 587T206
549L176 643Q224 678 272 696T385 714Q459 714 499 672T540 560Z" />
<glyph unicode="3" glyph-name="three" horiz-adv-x="545" d="M193 389L340 554L404 599L328 590H169L193 700H556L541 629L370 439L322 412V407L362 413Q382 411 404 401T446 372T477 322T490 247Q490 190 472 142T416 60T324 6T197 -14Q154 -14 110 -6T41 17L98
128Q118 115 147 107T214 99Q253 99 281 110T329 139T357 180T366 228Q366 276 341 298T248 320H178L193 389Z" />
<glyph unicode="4" glyph-name="four" horiz-adv-x="545" d="M535 195H430L389 0H274L315 195H28L43 269L436 705H538L452 298H557L535 195ZM370 452L396 536H393L345 464L219 329L164 291L226 298H337L370 452Z" />
<glyph unicode="5" glyph-name="five" horiz-adv-x="545" d="M201 99Q243 99 273 111T322 143T351 189T361 244Q361 294 331 315T229 336L152 333L229 700H556L531 578H311L282 440L319 444Q359 444 389 431T441 395T473 340T484 271Q484 133 406 60T182 -14Q162
-14 141 -12T101 -5T65 4T36 16L92 122Q112 112 137 106T201 99Z" />
<glyph unicode="6" glyph-name="six" horiz-adv-x="545" d="M516 255Q516 201 500 152T452 67T370 8T256 -14Q224 -14 190 -3T127 35T80 105T62 211Q62 313 100 401T200 556T343 664T508 714L515 611Q465 603 417 583T328 531T254 459T205 373Q232 402 271 417T353
432Q430 432 473 384T516 255ZM394 232Q394 272 374 297T305 322Q267 322 234 305T184 262Q182 252 181 240T179 219Q179 165 201 131T271 96Q328 96 361 134T394 232Z" />
<glyph unicode="7" glyph-name="seven" horiz-adv-x="545" d="M62 0L391 539L442 588L384 578H149L174 700H604L596 662L191 0H62Z" />
<glyph unicode="8" glyph-name="eight" horiz-adv-x="545" d="M54 153Q54 191 67 223T102 282T153 329T214 361Q200 374 188 387T166 418T151 457T145 510Q145 559 163 597T214 661T288 700T377 714Q461 714 505 671T549 559Q549 524 538 496T507 443T462 400T408
365Q453 330 472 291T492 205Q492 154 474 114T422 45T343 1T242 -14Q203 -14 169 -3T109 29T69 81T54 153ZM374 190Q374 213 367 231T347 263T317 290T282 314Q231 288 201 254T171 177Q171 142 192 119T261 96Q283 96 303 102T340 119T365 148T374 190ZM263 511Q263
476 285 452T341 407Q359 420 375 435T403 466T423 499T431 532Q431 568 413 586T362 604Q320 604 292 580T263 511Z" />
<glyph unicode="9" glyph-name="nine" horiz-adv-x="545" d="M99 456Q99 516 119 564T174 645T257 696T361 714Q403 714 439 701T501 661T543 592T559 493Q559 413 539 346T484 223T404 125T308 52T207 6T109 -14L103 88Q158 98 206 119T294 170T361 236T406 312Q377
289 343 278T261 266Q233 266 204 276T152 309T114 368T99 456ZM221 475Q221 446 228 427T249 396T277 379T310 374Q348 374 381 386T433 418Q436 429 438 449T441 478Q441 535 419 570T345 606Q321 606 299 599T260 575T232 534T221 475Z" />
<glyph unicode=":" glyph-name="colon" horiz-adv-x="314" d="M90 66Q90 101 112 121T170 142Q207 142 229 122T251 66Q251 31 229 10T170 -11Q134 -11 112 10T90 66ZM165 428Q165 463 187 483T245 504Q282 504 304 484T326 428Q326 393 304 372T245 351Q209 351
187 372T165 428Z" />
<glyph unicode=";" glyph-name="semicolon" horiz-adv-x="307" d="M138 -5Q121 -4 106 12T91 54Q91 94 116 116T177 138Q212 138 229 116T246 64V62Q245 13 226 -23T181 -85T126 -126T78 -148L52 -94Q81 -83 105 -58T138 -5ZM158 428Q158 463 180 483T238 504Q275
504 297 484T319 428Q319 393 297 372T238 351Q202 351 180 372T158 428Z" />
<glyph unicode="&lt;" glyph-name="less" horiz-adv-x="505" d="M51 285V355L437 586L494 496L270 357L179 322L269 291L499 154L442 64L51 285Z" />
<glyph unicode="=" glyph-name="equal" horiz-adv-x="505" d="M58 490H500V378H58V490ZM58 555H500V443H58V555Z" />
<glyph unicode="&gt;" glyph-name="greater" horiz-adv-x="505" d="M508 365V295L121 64L65 155L288 293L379 329L289 359L60 497L116 586L508 365Z" />
<glyph unicode="?" glyph-name="question" horiz-adv-x="430" d="M127 208Q133 262 151 300T194 367T246 417T296 459T334 500T349 549Q349 576 334 591T278 606Q247 606 210 593T145 560L114 654Q155 679 203 696T320 714Q404 714 443 679T482 583Q482 530 466
494T425 430T370 381T313 335T263 281T233 208H127ZM82 66Q82 101 104 121T162 142Q199 142 221 122T243 66Q243 31 221 10T162 -11Q126 -11 104 10T82 66Z" />
<glyph unicode="@" glyph-name="at" horiz-adv-x="1059" d="M706 484H776L727 213Q725 201 724 191T723 172Q723 124 760 124Q786 124 811 136T857 173T889 236T901 326Q901 401 876 454T808 542T705 593T579 609Q501 609 434 581T317 504T239 387T211 240Q211
162 234 100T303 -6T415 -73T568 -97Q597 -97 634 -90T701 -68L732 -164Q690 -184 648 -192T551 -200Q453 -200 371 -172T228 -89T134 47T100 236Q100 345 139 433T244 583T397 678T581 712Q673 712 752 686T889 610T980 489T1013 326Q1013 262 990 206T928 109T837
44T724 20Q699 20 678 25T641 44T619 78T615 130H611Q596 109 579 89T541 54T495 29T440 20Q415 20 394 30T356 60T331 106T321 166Q321 228 341 286T395 390T474 462T571 490Q606 490 630 480T675 452L706 484ZM643 363Q629 374 615 380T581 387Q551 387 526 370T482
325T453 265T442 199Q442 166 456 145T503 123Q517 123 533 131T564 154T592 187T617 225L643 363Z" />
<glyph unicode="A" glyph-name="A" horiz-adv-x="582" d="M387 155H183L100 0H-38L351 705H447L538 0H407L387 155ZM240 265H382L366 421L367 531H362L322 420L240 265Z" />
<glyph unicode="B" glyph-name="B" horiz-adv-x="568" d="M166 695Q185 698 209 701T260 706T315 709T371 710Q417 710 456 701T524 671T569 620T586 544Q586 511 575 481T544 426T495 386T430 365V360Q449 356 468 346T502 319T526 280T535 229Q535 165 510 120T443
46T345 4T227 -10Q211 -10 186 -10T131 -9T73 -4T20 5L166 695ZM167 109Q171 107 181 106T204 105T230 104T252 103Q277 103 303 109T351 129T387 165T401 219Q401 244 390 260T361 285T320 298T271 302H207L167 109ZM230 406H273Q287 406 306 406T338 409Q356
412 376 419T413 439T441 472T452 522Q452 565 424 581T351 597Q325 597 303 596T269 593L230 406Z" />
<glyph unicode="C" glyph-name="C" horiz-adv-x="537" d="M483 29Q416 -14 319 -14Q253 -14 204 8T123 69T74 160T58 272Q58 390 91 473T178 610T301 689T444 714Q501 714 541 706T605 686L554 570Q534 581 506 586T435 592Q384 592 340 571T264 511T214 416T195
289Q195 204 237 156T351 108Q396 108 425 117T481 141L483 29Z" />
<glyph unicode="D" glyph-name="D" horiz-adv-x="620" d="M168 700Q189 703 214 705T260 708T298 709Q307 709 323 709T360 710Q421 710 471 695T556 647T611 565T631 446Q631 402 624 352T598 250T549 152T470 69T356 11T201 -11Q186 -11 171 -11T150 -10Q130
-9 106 -8T57 -5T20 -1L168 700ZM174 114Q178 113 186 113T205 112T224 111T238 111Q308 111 357 142T436 221T480 324T494 428Q494 508 461 548T349 588Q329 588 307 587T273 584L174 114Z" />
<glyph unicode="E" glyph-name="E" horiz-adv-x="503" d="M168 700H298H562L536 578H272L237 415H478L451 293H212L175 122H444L419 0H150H20L168 700Z" />
<glyph unicode="F" glyph-name="F" horiz-adv-x="489" d="M168 700H298H562L536 578H272L235 405H478L453 283H210L150 0H20L168 700Z" />
<glyph unicode="G" glyph-name="G" horiz-adv-x="585" d="M369 365H579L513 53Q468 18 419 2T312 -14Q257 -14 211 5T130 60T77 149T58 270Q58 385 89 469T175 607T301 688T453 714Q510 714 554 705T622 685L570 570Q549 580 518 586T441 592Q388 592 343 572T265
513T214 417T195 285Q195 202 234 155T339 108Q388 108 425 133L453 266L351 282L369 365Z" />
<glyph unicode="H" glyph-name="H" horiz-adv-x="624" d="M455 293H212L150 0H20L168 700H298L238 415H481L541 700H671L523 0H393L455 293Z" />
<glyph unicode="I" glyph-name="I" horiz-adv-x="278" d="M183 700H312L164 0H35L183 700Z" />
<glyph unicode="J" glyph-name="J" horiz-adv-x="324" d="M239 700H369L260 188Q251 146 237 110T200 46T143 4T59 -12Q31 -12 0 -6T-51 11L-1 123Q22 110 53 110Q74 110 88 118T111 142T127 177T139 223L239 700Z" />
<glyph unicode="K" glyph-name="K" horiz-adv-x="593" d="M260 299H213L150 0H20L168 700H298L232 390L263 401L500 700H656L404 403L344 368L388 329L540 0H395L260 299Z" />
<glyph unicode="L" glyph-name="L" horiz-adv-x="495" d="M441 0H150H20L168 700H298L175 122H466L441 0Z" />
<glyph unicode="M" glyph-name="M" horiz-adv-x="767" d="M613 363L657 501H651L585 388L388 129H347L253 391L235 501H230L220 364L143 0H20L168 700H283L388 380L401 300H406L452 382L688 700H813L665 0H536L613 363Z" />
<glyph unicode="N" glyph-name="N" horiz-adv-x="631" d="M267 366L234 478H229L220 366L143 0H20L170 705H260L432 331L463 222H469L476 331L555 700H678L528 -5H438L267 366Z" />
<glyph unicode="O" glyph-name="O" horiz-adv-x="644" d="M58 262Q58 355 83 437T156 581T269 678T418 714Q472 714 515 698T589 649T637 564T654 443Q654 349 629 266T557 121T446 22T303 -14Q185 -14 122 55T58 262ZM195 266Q195 194 222 151T313 108Q359 108
396 135T461 209T502 316T517 441Q517 520 486 556T401 592Q356 592 319 566T254 496T211 392T195 266Z" />
<glyph unicode="P" glyph-name="P" horiz-adv-x="550" d="M167 693Q209 701 256 705T352 710Q403 710 446 699T522 663T573 602T591 512Q591 434 564 382T493 297T391 251T275 237Q270 237 260 237T238 237T216 239T200 241L150 0H20L167 693ZM226 359Q230 358
237 357T252 356T268 355T280 355Q314 355 345 362T401 386T439 430T454 496Q454 525 445 544T419 573T382 588T336 592Q318 592 302 591T274 587L226 359Z" />
<glyph unicode="Q" glyph-name="Q" horiz-adv-x="644" d="M58 262Q58 355 83 437T156 581T269 678T418 714Q472 714 515 698T589 649T637 564T654 443Q654 349 629 266T557 121T446 22T303 -14Q185 -14 122 55T58 262ZM195 266Q195 194 222 151T313 108Q359 108
396 135T461 209T502 316T517 441Q517 520 486 556T401 592Q356 592 319 566T254 496T211 392T195 266ZM627 -202Q579 -215 532 -215Q484 -215 440 -205T356 -182T278 -160T205 -149Q182 -149 160 -155L185 -37Q213 -31 241 -31Q281 -31 318 -41T394 -62T474 -84T562
-94Q583 -94 605 -92T652 -83L627 -202Z" />
<glyph unicode="R" glyph-name="R" horiz-adv-x="584" d="M167 693Q215 702 264 706T352 710Q398 710 439 699T510 666T557 608T575 524Q575 469 559 429T515 361T454 318T383 297L422 266L519 0H375L279 274L210 287L150 0H20L167 693ZM230 380H283Q312 380 340
385T389 405T424 444T438 505Q438 539 415 563T341 588Q321 588 304 587T274 583L230 380Z" />
<glyph unicode="S" glyph-name="S" horiz-adv-x="510" d="M502 559Q483 571 446 583T364 596Q341 596 319 592T280 577T253 551T243 513Q243 484 261 464T306 427T365 391T424 349T470 292T488 209Q488 150 468 108T410 38T320 -1T203 -14Q168 -14 137 -10T78
0T31 13T-2 28L65 144Q75 138 91 131T127 118T172 108T220 104Q248 104 273 108T316 123T345 150T356 190Q356 217 338 236T293 272T234 307T175 351T129 411T111 498Q111 556 131 597T187 664T269 702T370 714Q399 714 428 711T483 703T531 690T568 673L502 559Z"
/>
<glyph unicode="T" glyph-name="T" horiz-adv-x="547" d="M614 578H420L297 0H168L290 578H96L122 700H639L614 578Z" />
<glyph unicode="U" glyph-name="U" horiz-adv-x="602" d="M531 700H653L558 248Q543 176 519 127T461 46T381 2T275 -12Q217 -12 177 1T112 40T75 99T63 174Q63 194 65 215T73 259L167 700H296L204 260Q196 222 196 198Q196 150 221 130T294 110Q354 110 387 145T437
258L531 700Z" />
<glyph unicode="V" glyph-name="V" horiz-adv-x="579" d="M288 290L281 171H285L329 290L545 700H691L296 -5H202L101 700H243L288 290Z" />
<glyph unicode="W" glyph-name="W" horiz-adv-x="826" d="M249 310L235 186H240L279 312L477 700H565L594 310L581 186H586L626 312L790 700H930L597 -5H506L469 384L477 491H471L433 383L234 -5H143L109 700H246L249 310Z" />
<glyph unicode="X" glyph-name="X" horiz-adv-x="608" d="M256 357L143 700H284L344 498L354 427L391 498L540 700H696L433 362L558 0H419L347 216L335 290L295 216L134 0H-24L256 357Z" />
<glyph unicode="Y" glyph-name="Y" horiz-adv-x="569" d="M231 260L106 700H250L315 437L313 363H317L348 439L523 700H672L361 261L306 0H177L231 260Z" />
<glyph unicode="Z" glyph-name="Z" horiz-adv-x="518" d="M15 122L375 538L433 578H112L137 700H598L573 578L211 159L155 122H476L450 0H-11L15 122Z" />
<glyph unicode="[" glyph-name="bracketleft" horiz-adv-x="314" d="M198 700H421L399 591H294L143 -120H248L224 -230H2L198 700Z" />
<glyph unicode="\" glyph-name="backslash" horiz-adv-x="424" d="M472 -95L371 -140L36 668L139 711L472 -95Z" />
<glyph unicode="]" glyph-name="bracketright" horiz-adv-x="314" d="M145 -230H-78L-54 -120H51L201 591H96L118 700H342L145 -230Z" />
<glyph unicode="^" glyph-name="asciicircum" horiz-adv-x="505" d="M266 705H336L521 413H390L319 535L297 605L272 534L195 413H70L266 705Z" />
<glyph unicode="_" glyph-name="underscore" horiz-adv-x="444" d="M-46 -117H398V-224H-46V-117Z" />
<glyph unicode="`" glyph-name="grave" horiz-adv-x="274" d="M305 566H236L145 690L152 720H281L305 566Z" />
<glyph unicode="a" glyph-name="a" horiz-adv-x="503" d="M444 200Q436 162 433 123T429 49Q429 35 429 23T431 -1H340L326 85H322Q311 67 294 50T255 18T211 -5T162 -14Q96 -14 65 29T33 144Q33 217 51 284T109 402T207 483T349 514Q384 514 425 508T506 490L444
200ZM209 89Q227 89 243 96T272 116T296 142T315 168L365 401Q354 406 340 408T311 411Q275 411 247 390T200 334T170 256T160 168Q160 136 170 113T209 89Z" />
<glyph unicode="b" glyph-name="b" horiz-adv-x="512" d="M164 700H287L225 412H229Q242 430 259 447T296 479T341 503T394 512Q448 512 475 474T502 373Q502 278 476 206T406 86T309 13T200 -12Q139 -12 93 -1T22 28L164 700ZM160 105Q171 97 187 94T222 91Q247
91 274 107T323 156T360 234T375 340Q375 409 335 409Q315 409 296 398T258 371T226 335T202 299L160 105Z" />
<glyph unicode="c" glyph-name="c" horiz-adv-x="412" d="M393 387Q374 398 354 402T309 406Q282 406 257 389T211 343T178 276T166 198Q166 147 188 121T246 94Q276 94 301 103T347 125L370 41Q338 17 296 2T211 -14Q163 -14 130 0T75 38T44 93T34 158Q34 242
58 308T121 419T211 489T315 514Q362 514 389 505T439 485L393 387Z" />
<glyph unicode="d" glyph-name="d" horiz-adv-x="507" d="M442 176Q433 134 429 98T425 30Q425 22 425 15T426 -1H342L328 85H324Q313 67 296 50T257 18T213 -5T166 -14Q104 -14 71 30T37 151Q37 221 56 286T109 401T193 482T303 512Q332 512 351 509T387 497L430
700H553L442 176ZM365 394Q353 402 338 405T296 409Q266 409 242 389T200 334T174 254T164 160Q164 131 177 110T214 89Q229 89 244 96T273 116T298 142T317 168L365 394Z" />
<glyph unicode="e" glyph-name="e" horiz-adv-x="466" d="M402 48Q371 22 322 4T208 -14Q127 -14 81 33T34 166Q34 246 59 310T124 420T216 489T318 514Q359 514 388 504T437 475T465 432T474 381Q474 340 453 309T395 258T304 227T188 216Q180 216 173 216T158
217Q156 205 155 196T154 178Q154 133 177 111T244 89Q288 89 323 102T376 128L402 48ZM176 295Q204 295 235 297T294 306T339 328T357 368Q357 383 346 398T300 414Q256 414 224 380T176 295Z" />
<glyph unicode="f" glyph-name="f" horiz-adv-x="294" d="M246 397L172 -34Q166 -71 155 -102T125 -157T75 -194T1 -208Q-35 -208 -69 -203T-129 -180L-95 -89Q-78 -96 -61 -98T-18 -100Q14 -100 31 -75T58 8L121 397H51L73 500H137L150 567Q157 604 168 631T197
677T242 705T308 714Q324 714 344 713T385 708T424 699T458 687L429 596Q406 605 382 608T335 611Q303 611 289 592T268 533L262 500H362L342 397H246Z" />
<glyph unicode="g" glyph-name="g" horiz-adv-x="505" d="M407 0Q394 -59 372 -99T320 -165T250 -201T162 -212Q127 -212 100 -207T51 -195T15 -181T-10 -167L36 -76Q45 -80 57 -85T84 -96T120 -105T168 -109Q218 -109 247 -78T290 7L309 85H305Q282 49 243 21T153
-8Q99 -8 66 32T32 141Q32 218 54 285T115 403T209 483T328 512Q389 512 434 502T508 478L407 0ZM371 399Q360 405 343 407T309 409Q277 409 250 390T202 338T171 261T159 165Q159 133 172 114T208 95Q225 95 243 105T277 132T307 167T328 204L371 399Z" />
<glyph unicode="h" glyph-name="h" horiz-adv-x="528" d="M309 0L369 284Q379 328 379 357Q379 383 369 394T338 406Q319 406 298 394T258 364T224 326T200 288L141 0H18L166 700H289L226 412H230Q243 428 261 446T302 479T351 504T409 514Q457 514 483 490T510
405Q510 368 498 311L432 0H309Z" />
<glyph unicode="i" glyph-name="i" horiz-adv-x="256" d="M133 500H256L150 0H27L133 500ZM408 642Q408 675 429 693T484 711Q516 711 538 693T561 642Q561 610 539 592T484 573Q451 573 430 591T408 642Z" />
<glyph unicode="j" glyph-name="j" horiz-adv-x="244" d="M123 500H247L136 -21Q117 -111 72 -158T-50 -206Q-81 -206 -112 -199L-88 -93Q-63 -95 -45 -89T-15 -68T6 -33T21 16L123 500ZM397 642Q397 675 418 693T473 711Q505 711 527 693T550 642Q550 610 528
592T473 573Q440 573 419 591T397 642Z" />
<glyph unicode="k" glyph-name="k" horiz-adv-x="465" d="M224 207H184L141 0H18L166 700H289L201 287L238 300L379 500H516L367 299L307 261L352 223L428 0H296L224 207Z" />
<glyph unicode="l" glyph-name="l" horiz-adv-x="272" d="M168 148Q162 119 168 105T190 91Q218 91 243 102L240 13Q222 2 188 -5T121 -12Q78 -12 56 4T33 66Q33 89 39 119L162 700H285L168 148Z" />
<glyph unicode="m" glyph-name="m" horiz-adv-x="767" d="M283 0L340 272Q346 300 349 321T353 360Q353 406 318 406Q301 406 284 397T253 374T226 344T205 312L141 0H18L124 500H220L214 412H218Q233 428 250 446T290 479T339 504T398 514Q438 514 458 485T477
408Q492 427 511 446T553 480T601 504T654 514Q700 514 724 493T749 412Q749 369 734 300L671 0H548L607 281Q612 304 615 324T618 359Q618 382 610 394T581 406Q565 406 549 397T517 373T490 341T470 309L406 0H283Z" />
<glyph unicode="n" glyph-name="n" horiz-adv-x="521" d="M299 0L365 310Q371 338 371 359Q371 381 362 393T329 406Q311 406 293 397T259 373T229 340T205 302L141 0H18L124 500H217L212 412H216Q229 428 246 446T287 479T338 504T403 514Q448 514 475 490T502
408Q502 393 501 376T494 339L422 0H299Z" />
<glyph unicode="o" glyph-name="o" horiz-adv-x="496" d="M34 162Q34 241 56 306T116 417T203 488T307 514Q355 514 388 499T441 459T471 402T480 336Q480 258 458 194T399 83T313 12T210 -14Q163 -14 130 1T76 42T44 98T34 162ZM161 179Q161 89 226 89Q250 89
273 110T314 165T342 242T353 328Q353 368 340 389T289 411Q265 411 242 391T201 339T172 264T161 179Z" />
<glyph unicode="p" glyph-name="p" horiz-adv-x="506" d="M122 500H213L208 412H212Q226 431 244 449T284 482T331 505T385 514Q436 514 467 479T498 369Q498 284 476 214T416 93T328 14T222 -14Q196 -14 173 -9T139 4L96 -200H-26L122 500ZM160 106Q185 89 216
89Q247 89 275 110T324 166T358 247T371 345Q371 374 358 392T321 411Q303 411 286 402T254 380T227 349T206 316L160 106Z" />
<glyph unicode="q" glyph-name="q" horiz-adv-x="501" d="M356 -200H236L297 78H293Q283 61 269 45T236 16T195 -6T148 -14Q115 -14 93 -2T56 32T36 81T29 139Q29 215 53 283T120 402T219 482T339 512Q387 512 432 502T503 477L356 -200ZM364 399Q350 405 335
407T305 409Q275 409 248 388T200 331T168 249T156 155Q156 124 167 107T199 89Q218 89 237 100T272 129T302 167T324 206L364 399Z" />
<glyph unicode="r" glyph-name="r" horiz-adv-x="343" d="M215 500L216 412H220Q242 452 273 480T353 508Q374 508 403 500L372 393Q362 396 353 398T334 400Q293 400 259 374T206 312L141 0H18L124 500H215Z" />
<glyph unicode="s" glyph-name="s" horiz-adv-x="396" d="M38 117Q58 106 89 98T156 89Q191 89 209 102T229 144Q229 164 217 178T187 206T147 232T108 263T77 305T65 363Q65 396 78 424T114 472T171 503T247 514Q305 514 343 506T403 484L369 390Q349 399 321
405T261 411Q229 411 211 400T192 365Q192 349 204 337T234 311T274 285T313 252T344 209T356 150Q356 67 302 27T158 -14Q107 -14 65 -5T-1 19L38 117Z" />
<glyph unicode="t" glyph-name="t" horiz-adv-x="320" d="M64 500H129L149 594L280 631L252 500H369L346 397H230L181 171Q175 144 175 127Q175 105 185 97T215 89Q234 89 249 93T282 106V14Q271 8 256 3T222 -6T185 -12T150 -14Q99 -14 72 9T44 81Q44 91 45 102T49
125L107 397H40L64 500Z" />
<glyph unicode="u" glyph-name="u" horiz-adv-x="512" d="M241 500L176 191Q170 161 170 141Q170 121 178 110T206 99Q223 99 240 107T274 129T303 159T326 192L390 500H513L450 200Q445 180 442 153T435 98T431 43T431 0H332L327 90H323Q309 71 291 53T250 19T201
-5T144 -14Q97 -14 68 9T39 96Q39 133 49 177L118 500H241Z" />
<glyph unicode="v" glyph-name="v" horiz-adv-x="448" d="M209 238L211 161H214L244 240L381 500H520L214 -5H138L40 500H176L209 238Z" />
<glyph unicode="w" glyph-name="w" horiz-adv-x="678" d="M445 500L477 244L476 161H481L511 245L627 500H747L492 -5H401L366 275V338H362L336 274L186 -5H92L46 500H172L188 249L182 160H187L221 250L353 500H445Z" />
<glyph unicode="x" glyph-name="x" horiz-adv-x="496" d="M166 256L76 500H215L253 393L266 323L310 393L397 500H540L345 260L445 0H309L261 120L246 194L201 120L102 0H-41L166 256Z" />
<glyph unicode="y" glyph-name="y" horiz-adv-x="452" d="M216 219L217 141H223L250 220L386 500H517L277 51Q247 -5 221 -52T167 -133T111 -186T49 -205Q5 -205 -17 -190L16 -92Q22 -95 28 -96T41 -97Q65 -97 90 -74T140 0L46 500H187L216 219Z" />
<glyph unicode="z" glyph-name="z" horiz-adv-x="435" d="M9 108L234 347L305 392H69L93 500H465L442 392L212 149L148 108H382L359 0H-13L9 108Z" />
<glyph unicode="{" glyph-name="braceleft" horiz-adv-x="356" d="M122 96Q133 147 118 166T65 185L87 285Q123 285 147 305T180 370L224 579Q235 633 266 667T351 701H465L442 591H394Q368 591 354 577T332 531L291 336Q282 292 257 270T205 242L203 232Q228
228 242 202T248 134L207 -60Q200 -92 209 -106T245 -120H292L268 -230H154Q104 -230 85 -199T79 -109L122 96Z" />
<glyph unicode="|" glyph-name="bar" horiz-adv-x="232" d="M94 700H200V-130H94V700Z" />
<glyph unicode="}" glyph-name="braceright" horiz-adv-x="356" d="M266 375Q255 324 271 305T324 286L303 186Q227 186 209 101L164 -108Q153 -162 121 -196T34 -230H-76L-52 -120H-4Q21 -120 35 -107T56 -60L98 135Q107 179 131 201T184 229L187 239Q161 243
146 269T140 337L181 531Q188 562 180 576T144 591H98L120 701H233Q283 701 302 670T310 580L266 375Z" />
<glyph unicode="~" glyph-name="asciitilde" horiz-adv-x="505" d="M45 378Q92 416 129 430T199 445Q228 445 253 437T301 419T346 401T392 392Q410 392 429 398T469 421L516 318Q480 291 450 280T394 269Q366 269 342 278T296 298T250 318T201 327Q177 327 150
317T89 278L45 378Z" />
</font>
</defs>
</svg>
